Figure 4. Analyses of Growth rate experiment using Softbugs isolated from the environment
…
datafile <- "Figure_4_Growth_rate_experiment_DataSheet_20180302.xlsx"
sheet_strepto <- "data_table_Strep"
sheet_softbugs <- "data_table_Sb"

Dataset 1: Streptomyces

assay1 <- read_excel(datafile, sheet_strepto, na = "NA")
tbl_df(assay1) # should have 492 rows and 7 cols

## Warning: `tbl_df()` is deprecated as of dplyr 1.0.0.
## Please use `tibble::as_tibble()` instead.
## This warning is displayed once every 8 hours.
## Call `lifecycle::last_warnings()` to see where this warning was generated.

## # A tibble: 492 x 7
##    Input.order Ps.strain Ps.genotype Invader     Inv.strain Plate Invasion.score
##          <dbl> <chr>     <chr>       <chr>            <dbl> <dbl>          <dbl>
##  1          28 A         Ps2         Streptomyc         10     1          1.33 
##  2          25 A         Ps2         Streptomyc          9     1          1.21 
##  3           7 A         Ps2         Streptomyc          3     1          0.903
##  4          16 A         Ps2         Streptomyc          6     1          0.867
##  5          19 A         Ps2         Streptomyc          7     1          0.8  
##  6           1 A         Ps2         Streptomyc          1     1          0.686
##  7           4 A         Ps2         Streptomyc          2     1          0.613
##  8          22 A         Ps2         Streptomyc          8     1          0.577
##  9          13 A         Ps2         Streptomyc          5     1          0.536
## 10          10 A         Ps2         Streptomyc          4     1          0.134
## #  with 482 more rows

assay1 <- assay1 %>% select(-Input.order)
assay1 # should have 492 rows and 6 cols

## # A tibble: 492 x 6
##    Ps.strain Ps.genotype Invader      Inv.strain Plate Invasion.score
##    <chr>     <chr>       <chr>             <dbl> <dbl>          <dbl>
##  1 A         Ps2         Streptomyces         10     1          1.33 
##  2 A         Ps2         Streptomyces          9     1          1.21 
##  3 A         Ps2         Streptomyces          3     1          0.903
##  4 A         Ps2         Streptomyces          6     1          0.867
##  5 A         Ps2         Streptomyces          7     1          0.8  
##  6 A         Ps2         Streptomyces          1     1          0.686
##  7 A         Ps2         Streptomyces          2     1          0.613
##  8 A         Ps2         Streptomyces          8     1          0.577
##  9 A         Ps2         Streptomyces          5     1          0.536
## 10 A         Ps2         Streptomyces          4     1          0.134
## #  with 482 more rows

Dataset 2: Softbugs (our shorthand term for Non-antibiotic-producers)

assay2 <- read_excel(datafile, sheet_softbugs, na = "NA")
tbl_df(assay2) # should have 483 rows and 10 cols

## # A tibble: 483 x 7
##    Input.order Ps.strain Ps.genotype Invader  Inv.strain Plate Invasion.score
##          <dbl> <chr>     <chr>       <chr>         <dbl> <dbl>          <dbl>
##  1          72 Control   Control     Soft_bug          8     4           2.97
##  2         162 F         Ps1         Soft_bug          8     4           2.74
##  3         102 D         Ps1         Soft_bug          8     4           2.1 
##  4         252 K         Ps2         Soft_bug          8     4           2.02
##  5         342 N         Ps2         Soft_bug          8     4           1.96
##  6          45 B         Ps1         Soft_bug          8     4           1.85
##  7         312 M         Ps1         Soft_bug          8     4           1.82
##  8         324 N         Ps2         Soft_bug          2     4           1.82
##  9         482 S         Ps2         Soft_bug          8     4           1.78
## 10         512 T         Ps1         Soft_bug          8     4           1.71
## #  with 473 more rows

assay2 <- assay2 %>% select(-Input.order)
assay2$Inv.strain <- assay2$Inv.strain + 10 # to differentiate numbering from Strepto samples
assay2 <- assay2 %>% mutate(Plate = ifelse(Plate == 4, 1, ifelse(Plate == 5, 2, ifelse(Plate == 6, 3, NA))))
assay2 # should have 483 rows and 6 cols

## # A tibble: 483 x 6
##    Ps.strain Ps.genotype Invader  Inv.strain Plate Invasion.score
##    <chr>     <chr>       <chr>         <dbl> <dbl>          <dbl>
##  1 Control   Control     Soft_bug         18     1           2.97
##  2 F         Ps1         Soft_bug         18     1           2.74
##  3 D         Ps1         Soft_bug         18     1           2.1 
##  4 K         Ps2         Soft_bug         18     1           2.02
##  5 N         Ps2         Soft_bug         18     1           1.96
##  6 B         Ps1         Soft_bug         18     1           1.85
##  7 M         Ps1         Soft_bug         18     1           1.82
##  8 N         Ps2         Soft_bug         12     1           1.82
##  9 S         Ps2         Soft_bug         18     1           1.78
## 10 T         Ps1         Soft_bug         18     1           1.71
## #  with 473 more rows
…
assay3 <- bind_rows(assay1, assay2)
assay3 <- assay3 %>%
  select(Ps.genotype, Invader, Inv.strain, Ps.strain, Plate, Invasion.score) %>%
  arrange(Ps.genotype, Invader, Inv.strain, Ps.strain, Plate)
assay3 <- assay3 %>% filter(!is.na(Invasion.score))
assay3$Ps.genotype <- as.factor(assay3$Ps.genotype)
assay3$Ps.genotype <- fct_relevel(assay3$Ps.genotype, "Control", "Ps1", "Ps2")
assay3$Inv.strain <- as_factor(as.character(assay3$Inv.strain))
assay3$Inv.strain_shape <- if_else(assay3$Inv.strain == "18", "2", "16")
assay3$Invader <- as_factor(assay3$Invader) %>% fct_relevel("Soft_bug", "Streptomyces")
assay3$Ps.strain <- as_factor(assay3$Ps.strain)
assay3$Plate <- as_factor(as.character(assay3$Plate))
tbl_df(assay3) # 975 rows and 7 cols

## # A tibble: 975 x 7
##    Ps.genotype Invader Inv.strain Ps.strain Plate Invasion.score
##    <fct>       <fct>   <fct>      <fct>     <fct>          <dbl>
##  1 Control     Soft_b 11         Control   1              1.24 
##  2 Control     Soft_b 11         Control   2              0.495
##  3 Control     Soft_b 11         Control   3              0    
##  4 Control     Soft_b 12         Control   1              0.89 
##  5 Control     Soft_b 12         Control   2              0.675
##  6 Control     Soft_b 12         Control   3              0.89 
##  7 Control     Soft_b 13         Control   1              1.38 
##  8 Control     Soft_b 13         Control   2              0.755
##  9 Control     Soft_b 13         Control   3              1.38 
## 10 Control     Soft_b 14         Control   1              0.863
## #  with 965 more rows, and 1 more variable: Inv.strain_shape <chr>
…
