Figure S9 Growth rate experiment using Softbugs isolated from Acromyrmex ants (resident non-producers)
…
datafile <- "Figure_S9_Growth_rate_experiment_DataSheet_20180303.xlsx"
sheet_strepto <- "Streptomyces"
sheet_softbugs <- "softbugs"

Dataset 1: Streptomyces

assay1 <- read_excel(datafile, sheet_strepto, na = "NA")
tbl_df(assay1) # should have 540 rows and 10 columns

## Warning: `tbl_df()` is deprecated as of dplyr 1.0.0.
## Please use `tibble::as_tibble()` instead.
## This warning is displayed once every 8 hours.
## Call `lifecycle::last_warnings()` to see where this warning was generated.

## # A tibble: 540 x 10
##    Input.order Ps.strain Ps.genotype Invader Inv.strain Plate Invasion.score
##          <dbl> <chr>     <chr>       <chr>        <dbl> <dbl>          <dbl>
##  1           1 A         Ps2         Strept          1     1          0.704
##  2           2 A         Ps2         Strept          1     2          0.694
##  3           3 A         Ps2         Strept          1     3          0.672
##  4           4 A         Ps2         Strept          2     1          0.87 
##  5           5 A         Ps2         Strept          2     2          0.874
##  6           6 A         Ps2         Strept          2     3          1.04 
##  7           7 A         Ps2         Strept          3     1         NA    
##  8           8 A         Ps2         Strept          3     2          0.842
##  9           9 A         Ps2         Strept          3     3          1.18 
## 10          10 A         Ps2         Strept          5     1          0.676
## #  with 530 more rows, and 3 more variables: Standardised.score <dbl>,
## #   Spore.production <chr>, Notes <chr>

assay1 <- assay1 %>% select(-Input.order, -Notes, -Standardised.score, -Spore.production) # should have 540 rows and 6 columns

Dataset 2: Softbugs (our shorthand term for Non-antibiotic-producers)

assay2 <- read_excel(datafile, sheet_softbugs, na = "NA")
tbl_df(assay2) # should have 600 rows and 9 cols

## # A tibble: 600 x 9
##    Input.order Ps.strain Ps.genotype Invader Inv.strain Plate Invasion.score
##          <dbl> <chr>     <chr>       <chr>        <dbl> <dbl>          <dbl>
##  1           1 A         Ps2         soft_b         11     4          0.577
##  2           2 A         Ps2         soft_b         11     5          0.409
##  3           3 A         Ps2         soft_b         11     6          0.464
##  4           4 A         Ps2         soft_b         12     4          0.601
##  5           5 A         Ps2         soft_b         12     5          0.462
##  6           6 A         Ps2         soft_b         12     6          0.728
##  7           7 A         Ps2         soft_b         13     4          0.408
##  8           8 A         Ps2         soft_b         13     5          0    
##  9           9 A         Ps2         soft_b         13     6          0.422
## 10          10 A         Ps2         soft_b         14     4          0.688
## #  with 590 more rows, and 2 more variables: Standardised.score <dbl>,
## #   Notes <chr>
…
Assay 3: Combined

assay3 <- bind_rows(assay1, assay2)
assay3 <- assay3 %>% select(Ps.genotype, Invader, Inv.strain, Ps.strain, Plate, Invasion.score) %>% arrange(Ps.genotype, Invader, Inv.strain, Ps.strain, Plate)
assay3 <- assay3 %>% filter(!is.na(Invasion.score))
assay3$Ps.genotype <- as.factor(assay3$Ps.genotype)
assay3$Invader <- as.factor(assay3$Invader)
assay3$Inv.strain <- as.factor(assay3$Inv.strain)
assay3$Ps.strain <- as.factor(assay3$Ps.strain)
assay3$Plate <- as.factor(assay3$Plate)
tbl_df(assay3) # 1070 rows and 6 cols

## # A tibble: 1,070 x 6
##    Ps.genotype Invader   Inv.strain Ps.strain Plate Invasion.score
##    <fct>       <fct>     <fct>      <fct>     <fct>          <dbl>
##  1 Control     soft_bugs 11         Control   1              0.581
##  2 Control     soft_bugs 11         Control   2              0.645
##  3 Control     soft_bugs 11         Control   3              0.777
##  4 Control     soft_bugs 12         Control   1              0.697
##  5 Control     soft_bugs 12         Control   2              0.77 
##  6 Control     soft_bugs 12         Control   3              0.593
##  7 Control     soft_bugs 13         Control   1              0.478
##  8 Control     soft_bugs 13         Control   2              0.64 
##  9 Control     soft_bugs 13         Control   3              0.723
## 10 Control     soft_bugs 14         Control   1              0.532
## #  with 1,060 more rows
…
