Analysis of microbiome competition experiment - Figure 2
…
Variables

datafile <- "Figure_6_Pairwise_competition_experiment_DataSheet_20180301.xlsx"

Import data and format

assay <- read_excel(file.path(datafile), sheet = "Sheet1", na = "NA", col_types = c("text", "text", "text", "text"))
tbl_df(assay) # should have 250 rows and 4 cols

## Warning: `tbl_df()` is deprecated as of dplyr 1.0.0.
## Please use `tibble::as_tibble()` instead.
## This warning is displayed once every 8 hours.
## Call `lifecycle::last_warnings()` to see where this warning was generated.

## # A tibble: 250 x 4
##    Strep_strain Softbug_strain medium    Strep_outcome
##    <chr>        <chr>          <chr>     <chr>        
##  1 Strep_8      Soft_1         Ae707_Ps1 Wins         
##  2 Strep_8      Soft_1         Ae707_Ps1 Wins         
##  3 Strep_8      Soft_1         Ae707_Ps1 Wins         
##  4 Strep_8      Soft_1         Ae707_Ps1 Wins         
##  5 Strep_8      Soft_1         Ae707_Ps1 Wins         
##  6 Strep_8      Soft_2         Ae707_Ps1 Wins         
##  7 Strep_8      Soft_2         Ae707_Ps1 Wins         
##  8 Strep_8      Soft_2         Ae707_Ps1 Draws        
##  9 Strep_8      Soft_2         Ae707_Ps1 Wins         
## 10 Strep_8      Soft_2         Ae707_Ps1 Wins         
## #  with 240 more rows
…
assay$medium2 <- fct_collapse(assay$medium, 
        Ps1_infused_media = c("Ae707_Ps1"),
        Ps2_infused_media = c("Ae717_Ps2"),
        Control = c("Ctrl")
)

levels(assay$medium2)

## [1] "Ps1_infused_media" "Ps2_infused_media" "Control"

assay <- assay %>% dplyr::select(medium, medium2, Strep_strain, Softbug_strain, Strep_outcome) %>% arrange(medium, Strep_outcome)

assay # should have 249 rows and 5 cols

## # A tibble: 249 x 5
##    medium    medium2           Strep_strain Softbug_strain Strep_outcome
##    <fct>     <fct>             <fct>        <fct>          <fct>        
##  1 Ae707_Ps1 Ps1_infused_media Strep_8      Soft_1         Win          
##  2 Ae707_Ps1 Ps1_infused_media Strep_8      Soft_1         Win          
##  3 Ae707_Ps1 Ps1_infused_media Strep_8      Soft_1         Win          
##  4 Ae707_Ps1 Ps1_infused_media Strep_8      Soft_1         Win          
##  5 Ae707_Ps1 Ps1_infused_media Strep_8      Soft_1         Win          
##  6 Ae707_Ps1 Ps1_infused_media Strep_8      Soft_2         Win          
##  7 Ae707_Ps1 Ps1_infused_media Strep_8      Soft_2         Win          
##  8 Ae707_Ps1 Ps1_infused_media Strep_8      Soft_2         Win          
##  9 Ae707_Ps1 Ps1_infused_media Strep_8      Soft_2         Win          
## 10 Ae707_Ps1 Ps1_infused_media Strep_8      Soft_3         Win          
## #  with 239 more rows
…
