Figure 3 Analyses of LEC and MIC scores
…
assay1 <- assay1 %>% select(Strain, Strep_Soft, Antibiotic, MIC_score, LEC_score, Notes)
assay1 <- assay1 %>% filter(is.na(Notes) | Notes != "Contamination") %>% select(-Notes)
assay1$Strain <- as_factor(assay1$Strain)
assay1$Strep_Soft <- as_factor(assay1$Strep_Soft)
assay1$Antibiotic <- as_factor(assay1$Antibiotic)
tbl_df(assay1) # should have 235 rows and 5 cols

## Warning: `tbl_df()` is deprecated as of dplyr 1.0.0.
## Please use `tibble::as_tibble()` instead.
## This warning is displayed once every 8 hours.
## Call `lifecycle::last_warnings()` to see where this warning was generated.

## # A tibble: 235 x 5
##    Strain  Strep_Soft           Antibiotic      MIC_score LEC_score
##    <fct>   <fct>                <fct>               <dbl>     <dbl>
##  1 Strep_1 Antibiotic-producers Chloramphenicol         5         4
##  2 Strep_1 Antibiotic-producers Rifampicin              6         6
##  3 Strep_1 Antibiotic-producers Streptomycin            3         2
##  4 Strep_1 Antibiotic-producers Vancomycin              6         6
##  5 Strep_1 Antibiotic-producers Phosphomycin            6         6
##  6 Strep_1 Antibiotic-producers Nalidixic acid          6         6
##  7 Strep_1 Antibiotic-producers Apramycin               1         1
##  8 Strep_1 Antibiotic-producers Ampicillin              5         5
##  9 Strep_2 Antibiotic-producers Chloramphenicol         5         5
## 10 Strep_2 Antibiotic-producers Rifampicin              6         6
## #  with 225 more rows
…
